C:\Users\User\git\projetosjava\curiosity-report-marcelo\src\test\java\com\fountainledge\curiosity\service\CuriosityServiceTest.java
C:\Users\User\git\projetosjava\curiosity-report-marcelo\src\test\java\com\fountainledge\curiosity\service\NASAServiceImplTest.java
C:\Users\User\git\projetosjava\curiosity-report-marcelo\src\test\java\com\fountainledge\curiosity\AppTest.java
C:\Users\User\git\projetosjava\curiosity-report-marcelo\src\test\java\com\fountainledge\curiosity\AppTest_v3.java
